Obraz jest wart tysiąca słów
…
---

```r
penguins_int <- penguins %>%
  mutate(hover_text =
    paste0("This ", sex,
      " lives at ", island,
      " and was measured in ", year))
penguins_int %>%
  select(hover_text)
```

```
## # A tibble: 344 x 1
##    hover_text                                             
##    <chr>                                                  
##  1 This male lives at Torgersen and was measured in 2007  
##  2 This female lives at Torgersen and was measured in 2007
##  3 This female lives at Torgersen and was measured in 2007
##  4 This NA lives at Torgersen and was measured in 2007    
##  5 This female lives at Torgersen and was measured in 2007
##  6 This male lives at Torgersen and was measured in 2007  
##  7 This female lives at Torgersen and was measured in 2007
##  8 This male lives at Torgersen and was measured in 2007  
##  9 This NA lives at Torgersen and was measured in 2007    
## 10 This NA lives at Torgersen and was measured in 2007    
## # … with 334 more rows
```
…
